{
  "project_info": {
    "project_number": "853822755652",
    "project_id": "flutter-crud-topicos",
    "storage_bucket": "flutter-crud-topicos.appspot.com"
  },
  "client": [
    {
      "client_info": {
        "mobilesdk_app_id": "1:853822755652:android:909645e29a531b5c8c7d11",
        "android_client_info": {
          "package_name": "com.boliviansoftware.flutter_firebase"
        }
      },
      "oauth_client": [
        {
          "client_id": "853822755652-02e81ft6m26j38kudg5tke6oqpsupghu.apps.googleusercontent.com",
          "client_type": 3
        }
      ],
      "api_key": [
        {
          "current_key": "AIzaSyB3PgvYo7v3eniZrCeItcw4A_9c6Voya5Y"
        }
      ],
      "services": {
        "appinvite_service": {
          "other_platform_oauth_client": [
            {
              "client_id": "853822755652-02e81ft6m26j38kudg5tke6oqpsupghu.apps.googleusercontent.com",
              "client_type": 3
            }
          ]
        }
      }
    }
  ],
  "configuration_version": "1"
}